<svg width="30" height="31" viewBox="0 0 30 31" fill="none" xmlns="http://www.w3.org/2000/svg">
<path d="M15 20.4468C17.5888 20.4468 19.6875 18.3563 19.6875 15.7776C19.6875 13.1989 17.5888 11.1084 15 11.1084C12.4112 11.1084 10.3125 13.1989 10.3125 15.7776C10.3125 18.3563 12.4112 20.4468 15 20.4468Z" stroke="white" stroke-miterlimit="10"/>
<path d="M20.1562 5.03809H9.84375C6.73715 5.03809 4.21875 7.54665 4.21875 10.6411V20.9133C4.21875 24.0078 6.73715 26.5164 9.84375 26.5164H20.1562C23.2629 26.5164 25.7812 24.0078 25.7812 20.9133V10.6411C25.7812 7.54665 23.2629 5.03809 20.1562 5.03809Z" stroke="white" stroke-linecap="round" stroke-linejoin="round"/>
<path d="M21.0938 11.1082C21.8704 11.1082 22.5 10.481 22.5 9.7074C22.5 8.93378 21.8704 8.30664 21.0938 8.30664C20.3171 8.30664 19.6875 8.93378 19.6875 9.7074C19.6875 10.481 20.3171 11.1082 21.0938 11.1082Z" fill="white"/>
</svg>
