<svg width="50" height="39" viewBox="0 0 50 39" fill="none" xmlns="http://www.w3.org/2000/svg">
<path d="M8.7222 37.655C8.7222 37.9755 8.59761 38.245 8.3473 38.4624C8.097 38.6799 7.83197 38.7886 7.54995 38.7886C7.21696 38.7886 6.93494 38.6606 6.70503 38.4047L3.24605 34.7536L2.30485 35.6177V37.6357C2.30485 37.9687 2.19612 38.2473 1.97866 38.4715C1.7612 38.6957 1.48485 38.8078 1.15186 38.8078C0.818874 38.8078 0.543651 38.6957 0.326191 38.4715C0.107598 38.2473 0 37.9687 0 37.6357V25.7619C0 25.429 0.108731 25.1504 0.326191 24.9262C0.543651 24.702 0.818874 24.5898 1.15186 24.5898C1.48485 24.5898 1.76007 24.702 1.97866 24.9262C2.19612 25.1504 2.30485 25.429 2.30485 25.7619V32.8715L6.41734 28.8943C6.66085 28.6508 6.94287 28.5297 7.2634 28.5297C7.54542 28.5297 7.79799 28.6486 8.02224 28.8852C8.2465 29.1219 8.35863 29.3631 8.35863 29.6055C8.35863 29.9124 8.2046 30.2012 7.89766 30.4696L4.99592 33.1399L8.35863 36.7909C8.601 37.0469 8.7222 37.3356 8.7222 37.655Z" fill="white"/>
<path d="M19.1773 34.178C18.9462 34.3705 18.6778 34.4667 18.3697 34.4667H12.0283C12.1823 35.2221 12.5346 35.8155 13.085 36.2436C13.6354 36.6728 14.2572 36.8868 14.9493 36.8868C15.4748 36.8868 15.8837 36.8392 16.1793 36.743C16.4738 36.6467 16.7082 36.5448 16.8804 36.4361C17.0536 36.3274 17.1714 36.2538 17.236 36.2153C17.467 36.0997 17.6845 36.042 17.8895 36.042C18.1591 36.042 18.389 36.1382 18.5815 36.3308C18.7741 36.5233 18.8703 36.7475 18.8703 37.0034C18.8703 37.3488 18.6903 37.6637 18.3324 37.9445C17.9733 38.239 17.4931 38.4892 16.8906 38.6942C16.288 38.8992 15.6798 39.0011 15.0648 39.0011C13.9888 39.0011 13.0499 38.7769 12.2491 38.3284C11.4484 37.88 10.83 37.2616 10.3951 36.4746C9.95901 35.6864 9.74155 34.7997 9.74155 33.8133C9.74155 32.7114 9.9726 31.7443 10.4336 30.912C10.8945 30.0796 11.5027 29.442 12.2593 29.0004C13.0148 28.5587 13.8223 28.3379 14.6808 28.3379C15.5269 28.3379 16.3242 28.5689 17.0729 29.0298C17.8227 29.4907 18.4207 30.1124 18.8703 30.8938C19.3189 31.6752 19.5431 32.5212 19.5431 33.4305C19.5284 33.7363 19.4072 33.9866 19.1773 34.178ZM12.0475 32.545H17.082V32.4102C17.031 31.8723 16.7682 31.4114 16.2937 31.0263C15.8191 30.6424 15.2811 30.4499 14.6797 30.4499C13.1937 30.4511 12.316 31.1486 12.0475 32.545Z" fill="white"/>
<path d="M23.625 38.4715C23.4008 38.6957 23.1221 38.8078 22.7892 38.8078C22.4686 38.8078 22.2002 38.6957 21.9827 38.4715C21.7642 38.2473 21.6554 37.9687 21.6554 37.6357V25.7619C21.6554 25.429 21.7676 25.1504 21.9918 24.9262C22.2161 24.702 22.4947 24.5898 22.8277 24.5898C23.1482 24.5898 23.4166 24.702 23.6341 24.9262C23.8527 25.1504 23.9603 25.429 23.9603 25.7619V37.6369C23.9614 37.9698 23.8493 38.2484 23.625 38.4715Z" fill="white"/>
<path d="M26.7283 27.0672C26.5493 26.9267 26.4587 26.6765 26.4587 26.3175V25.9517C26.4587 25.5938 26.555 25.3436 26.7476 25.202C26.9401 25.0616 27.247 24.9902 27.6695 24.9902C28.118 24.9902 28.4317 25.0604 28.6118 25.202C28.7908 25.3436 28.8814 25.5927 28.8814 25.9517V26.3175C28.8814 26.6889 28.7885 26.9415 28.6028 27.0762C28.417 27.211 28.0999 27.2778 27.6514 27.2778C27.2153 27.2789 26.9084 27.2087 26.7283 27.0672ZM28.4963 38.471C28.2788 38.6952 28.0025 38.8073 27.6695 38.8073C27.3365 38.8073 27.0613 38.6952 26.8438 38.471C26.6252 38.2468 26.5176 37.9682 26.5176 37.6352V29.7001C26.5176 29.3672 26.6264 29.0886 26.8438 28.8644C27.0613 28.6401 27.3365 28.528 27.6695 28.528C28.0025 28.528 28.2777 28.6401 28.4963 28.8644C28.7138 29.0886 28.8225 29.3672 28.8225 29.7001V37.6352C28.8236 37.9693 28.7149 38.2479 28.4963 38.471Z" fill="white"/>
<path d="M38.2969 28.8455C38.9628 29.1853 39.2958 29.636 39.2958 30.2C39.2958 30.4819 39.212 30.7288 39.0455 30.9395C38.879 31.1512 38.6616 31.2565 38.392 31.2565C38.187 31.2565 38.0205 31.2271 37.8925 31.1705C37.7645 31.1127 37.6399 31.0357 37.5176 30.9395C37.3953 30.8432 37.2775 30.7639 37.162 30.6994C37.034 30.6348 36.8449 30.5782 36.5957 30.5261C36.3454 30.4751 36.1438 30.4491 35.9897 30.4491C35.0293 30.4491 34.2761 30.7469 33.7313 31.3426C33.1866 31.9383 32.9147 32.7163 32.9147 33.6766C32.9147 34.5984 33.1899 35.364 33.7415 35.9732C34.292 36.5825 34.9964 36.886 35.855 36.886C36.4824 36.886 36.9502 36.809 37.2571 36.655C37.3341 36.6165 37.4395 36.5496 37.5743 36.4534C37.709 36.3571 37.8336 36.2835 37.9492 36.2325C38.0647 36.1816 38.2051 36.1555 38.3716 36.1555C38.6921 36.1555 38.9447 36.2586 39.1305 36.4624C39.3162 36.6674 39.4091 36.9301 39.4091 37.2506C39.4091 37.5575 39.2301 37.8463 38.8711 38.1158C38.5121 38.3853 38.0375 38.5994 37.4485 38.7591C36.8596 38.9187 36.231 38.9991 35.565 38.9991C34.5785 38.9991 33.7109 38.7681 32.9612 38.3072C32.2114 37.8463 31.6315 37.2087 31.2215 36.3956C30.8115 35.5825 30.6065 34.6754 30.6065 33.6766C30.6065 32.6393 30.8205 31.7163 31.2498 30.91C31.6791 30.1026 32.2782 29.4718 33.0461 29.0177C33.8151 28.5636 34.6861 28.3359 35.6602 28.3359C36.7531 28.3359 37.6309 28.5058 38.2969 28.8455Z" fill="white"/>
<path d="M49.9999 37.655C49.9999 37.9755 49.8754 38.245 49.625 38.4624C49.3747 38.6799 49.1097 38.7886 48.8277 38.7886C48.4947 38.7886 48.2127 38.6606 47.9816 38.4047L44.5227 34.7536L43.5803 35.6177V37.6357C43.5803 37.9687 43.4716 38.2473 43.2541 38.4715C43.0367 38.6957 42.7603 38.8078 42.4285 38.8078C42.0955 38.8078 41.8191 38.6957 41.6017 38.4715C41.3831 38.2473 41.2755 37.9687 41.2755 37.6357V25.7619C41.2755 25.429 41.3842 25.1504 41.6017 24.9262C41.8191 24.702 42.0944 24.5898 42.4285 24.5898C42.7615 24.5898 43.0367 24.702 43.2541 24.9262C43.4716 25.1504 43.5803 25.429 43.5803 25.7619V32.8715L47.6928 28.8943C47.9363 28.6508 48.2184 28.5297 48.5389 28.5297C48.8209 28.5297 49.0735 28.6486 49.2977 28.8852C49.522 29.1219 49.6341 29.3631 49.6341 29.6055C49.6341 29.9124 49.4801 30.2012 49.1731 30.4696L46.2714 33.1399L49.6341 36.7909C49.8788 37.0469 49.9999 37.3356 49.9999 37.655Z" fill="white"/>
<path d="M30.6335 22.1594C32.7458 24.2714 36.2014 24.2216 38.2502 22.011C40.1134 20.0009 40.1134 16.8448 38.2502 14.8347C36.2014 12.6241 32.7458 12.5743 30.6335 14.6863L27.1235 18.1958C26.9978 18.3215 26.9978 18.5242 27.1235 18.6499L30.6335 22.1594Z" fill="#C13434"/>
<path d="M28.4702 13.9661C30.5825 11.854 30.5326 8.39891 28.3218 6.35029C26.3114 4.4874 23.1548 4.4874 21.1445 6.35029C18.9336 8.39891 18.8838 11.854 20.9961 13.9661L24.506 17.4755C24.6318 17.6012 24.8345 17.6012 24.9602 17.4755L28.4702 13.9661Z" fill="#FFB600"/>
<path d="M18.8339 22.1594C16.7216 24.2714 13.266 24.2216 11.2171 22.011C9.35401 20.0009 9.35401 16.8448 11.2171 14.8347C13.266 12.6241 16.7216 12.5743 18.8339 14.6863L22.3439 18.1958C22.4696 18.3215 22.4696 18.5242 22.3439 18.6499L18.8339 22.1594Z" fill="#00D1C6"/>
<path d="M24.7337 3.50382C25.7014 3.50382 26.4858 2.71946 26.4858 1.75191C26.4858 0.784357 25.7014 0 24.7337 0C23.766 0 22.9816 0.784357 22.9816 1.75191C22.9816 2.71946 23.766 3.50382 24.7337 3.50382Z" fill="#FFB600"/>
<path d="M42.707 20.1757C43.6747 20.1757 44.4591 19.3913 44.4591 18.4238C44.4591 17.4562 43.6747 16.6719 42.707 16.6719C41.7393 16.6719 40.9548 17.4562 40.9548 18.4238C40.9548 19.3913 41.7393 20.1757 42.707 20.1757Z" fill="#C13434"/>
<path d="M6.61762 20.1757C7.5853 20.1757 8.36976 19.3913 8.36976 18.4238C8.36976 17.4562 7.5853 16.6719 6.61762 16.6719C5.64994 16.6719 4.86548 17.4562 4.86548 18.4238C4.86548 19.3913 5.64994 20.1757 6.61762 20.1757Z" fill="#00D1C6"/>
</svg>
